module upday.com/upday-task-fe

go 1.16

require (
	github.com/gorilla/mux v1.8.0
	github.com/hashicorp/go-memdb v1.3.2
	github.com/hashicorp/go-multierror v1.1.1
	github.com/hashicorp/go-uuid v1.0.0
)
